{
  "schema": {
    "file": "./server/schema/schema.json"
  },
  "endpoints" : [
    {
      "name": "Default (http://localhost:3001/graphql)",
      "url": "http://localhost:3001/graphql",
      "options" : {
        "headers": {
          "user-agent" : "JS GraphQL"
        }
      }
    }
  ]

}